{"hash":"f9d453f16fe0a1a624117380dd11366e578c1d7b","data":{"posts":{"totalCount":290,"pageInfo":{"totalPages":49,"currentPage":45,"isFirst":false,"isLast":false},"edges":[{"node":{"title":"从雅典奥运想到的{初中时代的作文}","path":"/content/journal/thoughts-on-athens-olympics/"}},{"node":{"title":"自然的滋味{初中时代的作文}","path":"/content/journal/the-taste-of-nature/"}},{"node":{"title":"读《边城》","path":"/content/journal/the-outskirts-reading-notes/"}},{"node":{"title":"放弃的艺术{初中时代的作文}","path":"/content/journal/the-art-of-giving-up/"}},{"node":{"title":"我的理想{初中时代的作文}","path":"/content/journal/my-dream/"}},{"node":{"title":"表弟{2006暑假随笔}","path":"/content/journal/my-cousin/"}}]}},"context":{}}