{"hash":"f9d453f16fe0a1a624117380dd11366e578c1d7b","data":{"posts":{"totalCount":290,"pageInfo":{"totalPages":49,"currentPage":24,"isFirst":false,"isLast":false},"edges":[{"node":{"title":"以后坚决不去贝岗山顶","path":"/content/journal/never-go-to-hill-top-again/"}},{"node":{"title":"Come and Go","path":"/content/journal/come-and-go/"}},{"node":{"title":"倒霉的一周","path":"/content/journal/bad-week/"}},{"node":{"title":"When the End Gets Near","path":"/content/journal/when-the-end-gets-near/"}},{"node":{"title":"These Days","path":"/content/journal/these-days/"}},{"node":{"title":"第一次刷街","path":"/content/journal/skating-on-the-street/"}}]}},"context":{}}