{"hash":"f9d453f16fe0a1a624117380dd11366e578c1d7b","data":{"posts":{"totalCount":290,"pageInfo":{"totalPages":49,"currentPage":11,"isFirst":false,"isLast":false},"edges":[{"node":{"title":"戒.twitter","path":"/content/journal/quit-twitter/"}},{"node":{"title":"Epic-Cup Offcially Begins!","path":"/content/journal/epic-cup-offcially-begins/"}},{"node":{"title":"Tircd--tweet From Irssi!","path":"/content/journal/tircd-tweet-from-irssi/"}},{"node":{"title":"这个假期","path":"/content/journal/this-holiday/"}},{"node":{"title":"Transparent Awesome!","path":"/content/journal/transparent-awesome/"}},{"node":{"title":"Irssi Replacing Pidgin","path":"/content/journal/irssi-replacing-pidgin/"}}]}},"context":{}}