{"hash":"555ea1ea3fc15f08ad1c796e91be954332b3ec85","data":{"posts":{"totalCount":290,"pageInfo":{"totalPages":49,"currentPage":44,"isFirst":false,"isLast":false},"edges":[{"node":{"title":"男篮世锦赛 USA vs GER","path":"/content/journal/fiba-usa-ger-usa-vs-ger/"}},{"node":{"title":"宪兵队长罗卡,Il Maresciallo Rocca","path":"/content/journal/italian-tv-series-rocca-maresciallo-rocca/"}},{"node":{"title":"男篮世锦赛——中国队输了","path":"/content/journal/chn-lost/"}},{"node":{"title":"太阳系九大行星→太阳系八大行星","path":"/content/journal/solar-system/"}},{"node":{"title":"世锦赛——中国（CHN）VS斯洛文尼亚（SLO）","path":"/content/journal/chn-vs-slo/"}},{"node":{"title":"感受生活{初中时代的作文}","path":"/content/journal/understanding-life/"}}]}},"context":{}}