{"hash":"fdf0226fc38aac995e71da34124516abb882d986","data":{"posts":{"totalCount":290,"pageInfo":{"totalPages":49,"currentPage":37,"isFirst":false,"isLast":false},"edges":[{"node":{"title":"好开心","path":"/content/journal/delighted/"}},{"node":{"title":"I Am f****d","path":"/content/journal/i-am-fd/"}},{"node":{"title":"2007 First Disaster","path":"/content/journal/2007-first-disaster/"}},{"node":{"title":"海底电缆！","path":"/content/journal/undersea-electric-wire/"}},{"node":{"title":"地铁三号线","path":"/content/journal/subway-3rd-line/"}},{"node":{"title":"我们六班又有自己的日记了！","path":"/content/journal/class-6-diary/"}}]}},"context":{}}