{"hash":"d1ab31b1625aef76b6d9fc1569fdf38558ab8d2e","data":{"posts":{"totalCount":289,"pageInfo":{"totalPages":49,"currentPage":20,"isFirst":false,"isLast":false},"edges":[{"node":{"title":"What the Fuss","path":"/content/journal/what-the-fuss/"}},{"node":{"title":"MSGDUFS","path":"/content/journal/msgdufs/"}},{"node":{"title":"Messsage to Mark Cuban","path":"/content/journal/messsage-to-mark-cuban/"}},{"node":{"title":"破洗衣机","path":"/content/journal/crappy-washing-machine/"}},{"node":{"title":"今天究竟是什么日子？","path":"/content/journal/what-day-is-it-today/"}},{"node":{"title":"Happy?","path":"/content/journal/happy/"}}]}},"context":{}}