{"hash":"6f7ea7b7b7db75da07a89a880aedd8fe036650ea","data":{"posts":{"totalCount":289,"pageInfo":{"totalPages":49,"currentPage":1,"isFirst":true,"isLast":false},"edges":[{"node":{"title":"VIM theme for the beach","path":"/content/journal/vim-theme-for-the-beach/"}},{"node":{"title":"arXiv Reader","path":"/content/journal/arxiv-reader/"}},{"node":{"title":"training monitoring with Visdom and Hyperdash","path":"/content/journal/training-monitoring-visdom-hyperdash/"}},{"node":{"title":"a minimal training plot server","path":"/content/journal/a-minimal-training-plot-server/"}},{"node":{"title":"in guangzhou","path":"/content/journal/in-guangzhou/"}},{"node":{"title":"ghost easy upgrade","path":"/content/journal/ghost-easy-upgrade/"}}]}},"context":{}}