{"hash":"d1ab31b1625aef76b6d9fc1569fdf38558ab8d2e","data":{"posts":{"totalCount":289,"pageInfo":{"totalPages":49,"currentPage":29,"isFirst":false,"isLast":false},"edges":[{"node":{"title":"What's Wrong With Being Gay?","path":"/content/journal/whats-wrong-with-being-gay/"}},{"node":{"title":"My Future","path":"/content/journal/my-future/"}},{"node":{"title":"About Meeting Old Mates","path":"/content/journal/about-meeting-old-mates/"}},{"node":{"title":"The Greatest Match Ever","path":"/content/journal/the-greatest-match-ever/"}},{"node":{"title":"Christopher Eccleston","path":"/content/journal/christopher-eccleston/"}},{"node":{"title":"Trip to Hainan","path":"/content/journal/trip-to-hainan/"}}]}},"context":{}}