{"hash":"555ea1ea3fc15f08ad1c796e91be954332b3ec85","data":{"posts":{"totalCount":290,"pageInfo":{"totalPages":49,"currentPage":49,"isFirst":false,"isLast":true},"edges":[{"node":{"title":"一念之差{初中时代的作文}","path":"/content/journal/a-flash-of-thought/"}},{"node":{"title":"Woohoo! Blogger Beta!","path":"/content/journal/woohoo-blogger-beta/"}}]}},"context":{}}