{"hash":"112f781b8d76bdc86d49c040e15d8e4136f8b0f7","data":{"posts":{"totalCount":289,"pageInfo":{"totalPages":49,"currentPage":33,"isFirst":false,"isLast":false},"edges":[{"node":{"title":"敬仰的人","path":"/content/journal/respectable/"}},{"node":{"title":"Sherlock Holmes and House","path":"/content/journal/sherlock-holmes-and-house/"}},{"node":{"title":"Problems I'm Facing","path":"/content/journal/problems-im-facing/"}},{"node":{"title":"Pressure Brings Me Down","path":"/content/journal/pressure-brings-me-down/"}},{"node":{"title":"Crush","path":"/content/journal/crush/"}},{"node":{"title":"Dreams","path":"/content/journal/dreams/"}}]}},"context":{}}