{"hash":"f9d453f16fe0a1a624117380dd11366e578c1d7b","data":{"posts":{"totalCount":290,"pageInfo":{"totalPages":49,"currentPage":36,"isFirst":false,"isLast":false},"edges":[{"node":{"title":"五子棋又输了","path":"/content/journal/lost-gomoku/"}},{"node":{"title":"3-28-2007[今天我做了件比较坏的事]","path":"/content/journal/3-28-2007did-sth-bad-today/"}},{"node":{"title":"我要记下来","path":"/content/journal/mark-down/"}},{"node":{"title":"When Did Birthday Become the Day of Disaster?","path":"/content/journal/when-did-birthday-become-the-day-of-disaster/"}},{"node":{"title":"Back From Hong Kong","path":"/content/journal/back-from-hong-kong/"}},{"node":{"title":"失望?绝望?","path":"/content/journal/disappointment-desperation/"}}]}},"context":{}}