{"hash":"f9d453f16fe0a1a624117380dd11366e578c1d7b","data":{"posts":{"totalCount":290,"pageInfo":{"totalPages":49,"currentPage":21,"isFirst":false,"isLast":false},"edges":[{"node":{"title":"Happy?","path":"/content/journal/happy/"}},{"node":{"title":"Drcom!","path":"/content/journal/drcom/"}},{"node":{"title":"关机/重启问题","path":"/content/journal/shutdown-reboot-problem/"}},{"node":{"title":"每个人的背后都有一段不堪回首的故事","path":"/content/journal/dark-history/"}},{"node":{"title":"End of the Darkest Year of My Life","path":"/content/journal/end-of-the-darkest-year-of-my-life/"}},{"node":{"title":"In Memory of 贪爷","path":"/content/journal/in-memory-of-in-memory-of-a-dear-friend/"}}]}},"context":{}}