{"hash":"6f7ea7b7b7db75da07a89a880aedd8fe036650ea","data":{"posts":{"totalCount":289,"pageInfo":{"totalPages":49,"currentPage":27,"isFirst":false,"isLast":false},"edges":[{"node":{"title":"Discoveries","path":"/content/journal/discoveries/"}},{"node":{"title":"倒霉鬼","path":"/content/journal/bad-luck/"}},{"node":{"title":"I Hate Going Home","path":"/content/journal/i-hate-going-home/"}},{"node":{"title":"Back Home","path":"/content/journal/back-home/"}},{"node":{"title":"图书馆上网","path":"/content/journal/internet-in-library/"}},{"node":{"title":"军训剩三天","path":"/content/journal/last-3-days-of-military-training/"}}]}},"context":{}}