{"hash":"112f781b8d76bdc86d49c040e15d8e4136f8b0f7","data":{"posts":{"totalCount":289,"pageInfo":{"totalPages":49,"currentPage":8,"isFirst":false,"isLast":false},"edges":[{"node":{"title":"Genetically Speaking","path":"/content/journal/genetically-speaking/"}},{"node":{"title":"Part-times","path":"/content/journal/part-times/"}},{"node":{"title":"夢。末日","path":"/content/journal/dream-end-of-the-world/"}},{"node":{"title":"折腾了bitlbee和awesome 3.4.5","path":"/content/journal/bitlbee-awesome-3-4-5/"}},{"node":{"title":"酒","path":"/content/journal/alcohol/"}},{"node":{"title":"第一份part Time, 很廉价","path":"/content/journal/first-part-time/"}}]}},"context":{}}