{"hash":"c035355dcf2811990fb7d6212a2e49c58001871e","data":{"posts":{"totalCount":289,"pageInfo":{"totalPages":49,"currentPage":46,"isFirst":false,"isLast":false},"edges":[{"node":{"title":"2004年7月24日{初中时代的暑假日记}","path":"/content/journal/july-24th-2004/"}},{"node":{"title":"2004年7月18日{初中时代的暑假日记}","path":"/content/journal/july-18th-2004/"}},{"node":{"title":"欢乐谷之乐{初中时代的作文}","path":"/content/journal/happy-valley/"}},{"node":{"title":"外婆的经历{2006暑假随笔}","path":"/content/journal/grandmas-stories/"}},{"node":{"title":"大自然的恩赐——时间{初中时代的作文}","path":"/content/journal/gift-of-nature-time/"}},{"node":{"title":"《繁星·春水》读后感","path":"/content/journal/fanxing-chunshui-reading-notes/"}}]}},"context":{}}