{"hash":"555ea1ea3fc15f08ad1c796e91be954332b3ec85","data":{"posts":{"totalCount":290,"pageInfo":{"totalPages":49,"currentPage":17,"isFirst":false,"isLast":false},"edges":[{"node":{"title":"数模","path":"/content/journal/modelling/"}},{"node":{"title":"Opera Mini Rocks","path":"/content/journal/opera-mini-rocks/"}},{"node":{"title":"[Beep!]","path":"/content/journal/sht/"}},{"node":{"title":"继续这一天","path":"/content/journal/continue-this-day/"}},{"node":{"title":"倒霉周期","path":"/content/journal/bad-luck-cycle/"}},{"node":{"title":"Withered....","path":"/content/journal/withered/"}}]}},"context":{}}