{"hash":"555ea1ea3fc15f08ad1c796e91be954332b3ec85","data":{"posts":{"totalCount":290,"pageInfo":{"totalPages":49,"currentPage":40,"isFirst":false,"isLast":false},"edges":[{"node":{"title":"校运会!","path":"/content/journal/sports-conference/"}},{"node":{"title":"校运会!(Part Une)","path":"/content/journal/sports-conference-1-une/"}},{"node":{"title":"First Hand Photos of the Sports Conference","path":"/content/journal/first-hand-photos-of-the-sports-conference/"}},{"node":{"title":"First Hand Recordings of the Sports Conference","path":"/content/journal/first-hand-recordings-of-the-sports-conference/"}},{"node":{"title":"生日PARTY","path":"/content/journal/birthday-party/"}},{"node":{"title":"我们是羽协杯冠军!","path":"/content/journal/badminton-champion/"}}]}},"context":{}}