{"hash":"9bfa97e5f71d3e2459f2681c879c3b1778226211","data":{"posts":{"totalCount":290,"pageInfo":{"totalPages":49,"currentPage":23,"isFirst":false,"isLast":false},"edges":[{"node":{"title":"The Aftermath","path":"/content/journal/the-aftermath/"}},{"node":{"title":"最弱智的游戏","path":"/content/journal/stupid-game/"}},{"node":{"title":"Quote","path":"/content/journal/quote/"}},{"node":{"title":"我是老人！？衰老中...","path":"/content/journal/getting-old/"}},{"node":{"title":"糖水铺, Other Pieces","path":"/content/journal/dessert-shop-other-pieces/"}},{"node":{"title":"Dido, Brilliant","path":"/content/journal/dido-brilliant/"}}]}},"context":{}}