{"hash":"9bfa97e5f71d3e2459f2681c879c3b1778226211","data":{"posts":{"totalCount":290,"pageInfo":{"totalPages":49,"currentPage":30,"isFirst":false,"isLast":false},"edges":[{"node":{"title":"Trip to Hainan","path":"/content/journal/trip-to-hainan/"}},{"node":{"title":"妈呀，终于结束了","path":"/content/journal/finally-ended/"}},{"node":{"title":"毕业典礼","path":"/content/journal/graduation-ceromony/"}},{"node":{"title":"For Education","path":"/content/journal/for-education/"}},{"node":{"title":"Silent Tribute","path":"/content/journal/silent-tribute/"}},{"node":{"title":"Screwed","path":"/content/journal/screwed/"}}]}},"context":{}}