{"hash":"ffd7038b431585c48d67e3d6878e9f98975f1e8e","data":{"posts":{"totalCount":22,"pageInfo":{"totalPages":4,"currentPage":4,"isFirst":false,"isLast":true},"edges":[{"node":{"title":"Matlab! 界面白色！","path":"/content/journal/matlab-matlab-blank-ui/"}},{"node":{"title":"Awesome 3.3.1!","path":"/content/journal/awesome-331/"}},{"node":{"title":"Win 7 on Virtualbox","path":"/content/journal/win-7-on-virtualbox/"}},{"node":{"title":"Live-Android","path":"/content/journal/live-android/"}}]}},"context":{}}