{"hash":"112f781b8d76bdc86d49c040e15d8e4136f8b0f7","data":{"posts":{"totalCount":289,"pageInfo":{"totalPages":49,"currentPage":31,"isFirst":false,"isLast":false},"edges":[{"node":{"title":"We Can Match Anybody on Our Day","path":"/content/journal/john-terry-we-can-match-anybody-on-our-day/"}},{"node":{"title":"All That Is Needed Is FAITH","path":"/content/journal/all-that-is-needed-is-faith/"}},{"node":{"title":"自主招生","path":"/content/journal/school-admission/"}},{"node":{"title":"Feb.29th 2008","path":"/content/journal/feb29th-2008/"}},{"node":{"title":"Virgin Territory----Funniest Film of 2007","path":"/content/journal/virgin-territory-funniest-film-of-2007/"}},{"node":{"title":"幸福最大化","path":"/content/journal/maximizing-happiness/"}}]}},"context":{}}