{"hash":"6f7ea7b7b7db75da07a89a880aedd8fe036650ea","data":{"posts":{"totalCount":289,"pageInfo":{"totalPages":49,"currentPage":13,"isFirst":false,"isLast":false},"edges":[{"node":{"title":"Pending Tests","path":"/content/journal/pending-tests/"}},{"node":{"title":"Frustration! 纠结！","path":"/content/journal/frustration-cursor-theme-awesome/"}},{"node":{"title":"无聊.搞定awesome-git","path":"/content/journal/switched-to-awesome-git-git/"}},{"node":{"title":"Awesome+zenburn","path":"/content/journal/awesomezenburn/"}},{"node":{"title":"Win7 Installation Notes","path":"/content/journal/win7-installation-notes/"}},{"node":{"title":"嘻嘻，搞定rss+twitterfeed","path":"/content/journal/setup-rss-twitterfeed/"}}]}},"context":{}}