{"hash":"d1ab31b1625aef76b6d9fc1569fdf38558ab8d2e","data":{"posts":{"totalCount":289,"pageInfo":{"totalPages":49,"currentPage":42,"isFirst":false,"isLast":false},"edges":[{"node":{"title":"羽协杯、乒协杯比赛开始了！","path":"/content/journal/badminton-table-tennis-matches/"}},{"node":{"title":"我有记忆力衰退的现象?","path":"/content/journal/declining-memory/"}},{"node":{"title":"数学欣赏与探究-1","path":"/content/journal/math-exploration-1/"}},{"node":{"title":"200米蛙泳","path":"/content/journal/200m-breaststroke/"}},{"node":{"title":"Two Weeks Now...","path":"/content/journal/two-weeks-now/"}},{"node":{"title":"风格与变化","path":"/content/journal/style-and-variation/"}}]}},"context":{}}