{"hash":"d1ab31b1625aef76b6d9fc1569fdf38558ab8d2e","data":{"posts":{"totalCount":289,"pageInfo":{"totalPages":49,"currentPage":35,"isFirst":false,"isLast":false},"edges":[{"node":{"title":"双休日","path":"/content/journal/weekends/"}},{"node":{"title":"化学考第一?,第一!","path":"/content/journal/first-in-chemistry/"}},{"node":{"title":"Agreed","path":"/content/journal/agreed/"}},{"node":{"title":"Sarcasm","path":"/content/journal/sarcasm/"}},{"node":{"title":"难得的悠闲","path":"/content/journal/rare-leisure/"}},{"node":{"title":"五子棋又输了","path":"/content/journal/lost-gomoku/"}}]}},"context":{}}