{"hash":"fdf0226fc38aac995e71da34124516abb882d986","data":{"posts":{"totalCount":290,"pageInfo":{"totalPages":49,"currentPage":34,"isFirst":false,"isLast":false},"edges":[{"node":{"title":"Dreams","path":"/content/journal/dreams/"}},{"node":{"title":"校运会第一天，好累","path":"/content/journal/first-day-of-sports-conference/"}},{"node":{"title":"Why Everything Sucks?","path":"/content/journal/why-everything-sucks/"}},{"node":{"title":"所谓迟到","path":"/content/journal/being-late/"}},{"node":{"title":"It's Been...","path":"/content/journal/its-been/"}},{"node":{"title":"人,就是不一样","path":"/content/journal/people-are-different/"}}]}},"context":{}}