{"hash":"f9d453f16fe0a1a624117380dd11366e578c1d7b","data":{"posts":{"totalCount":290,"pageInfo":{"totalPages":49,"currentPage":41,"isFirst":false,"isLast":false},"edges":[{"node":{"title":"校内游泳比赛(Updated)","path":"/content/journal/swimming-contest/"}},{"node":{"title":"羽协杯最新赛况","path":"/content/journal/latest-on-badminton-2-2/"}},{"node":{"title":"羽协杯最新赛况","path":"/content/journal/latest-on-badminton/"}},{"node":{"title":"永远的六班","path":"/content/journal/forever-6/"}},{"node":{"title":"Windows Live Writer Beta Released!","path":"/content/journal/windows-live-writer-beta-released/"}},{"node":{"title":"羽协杯最新消息","path":"/content/journal/latest-news-on-badminton-table-tennis/"}}]}},"context":{}}