{"hash":"6f7ea7b7b7db75da07a89a880aedd8fe036650ea","data":{"posts":{"totalCount":289,"pageInfo":{"totalPages":49,"currentPage":39,"isFirst":false,"isLast":false},"edges":[{"node":{"title":"Ear Piercing","path":"/content/journal/ear-piercing/"}},{"node":{"title":"电耳镜检查","path":"/content/journal/ear-exam/"}},{"node":{"title":"复古舞?","path":"/content/journal/retro-dance/"}},{"node":{"title":"学农总结","path":"/content/journal/summary-village-experience/"}},{"node":{"title":"I'm Back!","path":"/content/journal/im-back/"}},{"node":{"title":"校运会!","path":"/content/journal/sports-conference/"}}]}},"context":{}}