{"hash":"112f781b8d76bdc86d49c040e15d8e4136f8b0f7","data":{"posts":{"totalCount":289,"pageInfo":{"totalPages":49,"currentPage":19,"isFirst":false,"isLast":false},"edges":[{"node":{"title":"Twitter!","path":"/content/journal/twitter/"}},{"node":{"title":"Oooooooooooooo","path":"/content/journal/oooooooooooooo/"}},{"node":{"title":"Busy?","path":"/content/journal/busy/"}},{"node":{"title":"50 WAYS to IMPROVE YOUR LIFE in 2009","path":"/content/journal/50-ways-to-improve-your-life-in-2009/"}},{"node":{"title":"Trainspotting-It's Just F*cking Brilliant","path":"/content/journal/trainspotting-its-just-fcking-brilliant/"}},{"node":{"title":"The Pursuit of Grades, Not Happiness","path":"/content/journal/the-pursuit-of-grades-not-happiness/"}}]}},"context":{}}