{"hash":"555ea1ea3fc15f08ad1c796e91be954332b3ec85","data":{"posts":{"totalCount":290,"pageInfo":{"totalPages":49,"currentPage":32,"isFirst":false,"isLast":false},"edges":[{"node":{"title":"幸福最大化","path":"/content/journal/maximizing-happiness/"}},{"node":{"title":"Finally","path":"/content/journal/finally/"}},{"node":{"title":"Recently He Has Been My Favourite Actor","path":"/content/journal/recently-he-has-been-my-favourite-actor/"}},{"node":{"title":"Night of Love","path":"/content/journal/night-of-love/"}},{"node":{"title":"Seeing 在迎新班会上窜来窜去的小桂子，不由得想起这首歌","path":"/content/journal/seeing-a-song-pops-up/"}},{"node":{"title":"Dinner Outside","path":"/content/journal/dinner-outside/"}}]}},"context":{}}