{"hash":"d1ab31b1625aef76b6d9fc1569fdf38558ab8d2e","data":{"posts":{"totalCount":289,"pageInfo":{"totalPages":49,"currentPage":3,"isFirst":false,"isLast":false},"edges":[{"node":{"title":"Perceptron","path":"/content/journal/my-first-machine-learning-algo-perceptron/"}},{"node":{"title":"Minimalistic Resume Template","path":"/content/journal/my-resume-template/"}},{"node":{"title":"重複的夢","path":"/content/journal/repeated-dreams/"}},{"node":{"title":"不務正業理想課程","path":"/content/journal/ideal-coursework/"}},{"node":{"title":"Colors","path":"/content/journal/colors/"}},{"node":{"title":"Kony 2012. ?","path":"/content/journal/kony-2012/"}}]}},"context":{}}