{"hash":"112f781b8d76bdc86d49c040e15d8e4136f8b0f7","data":{"posts":{"totalCount":289,"pageInfo":{"totalPages":49,"currentPage":47,"isFirst":false,"isLast":false},"edges":[{"node":{"title":"狗{2005年寒假作文}","path":"/content/journal/dogs/"}},{"node":{"title":"《爱的教育》读后感","path":"/content/journal/cuore-reading-notes/"}},{"node":{"title":"为失败喝彩{初中时代的作文}","path":"/content/journal/cheer-for-failure/"}},{"node":{"title":"《羊脂球》读后感","path":"/content/journal/boule-de-suif-reading-notes/"}},{"node":{"title":"读《围城》","path":"/content/journal/besieged-city-reading-notes/"}},{"node":{"title":"2004年8月9日{初中时代的暑假日记}","path":"/content/journal/aug-9th-2004/"}}]}},"context":{}}