{"hash":"c035355dcf2811990fb7d6212a2e49c58001871e","data":{"posts":{"totalCount":289,"pageInfo":{"totalPages":49,"currentPage":6,"isFirst":false,"isLast":false},"edges":[{"node":{"title":"HK","path":"/content/journal/hk/"}},{"node":{"title":"夢。","path":"/content/journal/dream/"}},{"node":{"title":"2010 in Review","path":"/content/journal/2010-in-review/"}},{"node":{"title":"冬至日","path":"/content/journal/winter-solstice/"}},{"node":{"title":"故事","path":"/content/journal/story/"}},{"node":{"title":"小兔子","path":"/content/journal/rabbit/"}}]}},"context":{}}