{"hash":"e7bb568317ecb1df957bb0c0842dce85390170ca","data":{"posts":{"totalCount":22,"pageInfo":{"totalPages":4,"currentPage":2,"isFirst":false,"isLast":false},"edges":[{"node":{"title":"Working With SAS on Columbia Unix Server","path":"/content/journal/working-on-columbia-unix-server/"}},{"node":{"title":"Perceptron","path":"/content/journal/my-first-machine-learning-algo-perceptron/"}},{"node":{"title":"Tyrs","path":"/content/journal/tyrs/"}},{"node":{"title":"Base64 Encrypted Pac File on Opera","path":"/content/journal/base64-encrypted-pac-file-on-opera/"}},{"node":{"title":"Tircd--tweet From Irssi!","path":"/content/journal/tircd-tweet-from-irssi/"}},{"node":{"title":"Irssi Replacing Pidgin","path":"/content/journal/irssi-replacing-pidgin/"}}]}},"context":{}}