{"hash":"f9d453f16fe0a1a624117380dd11366e578c1d7b","data":{"posts":{"totalCount":290,"pageInfo":{"totalPages":49,"currentPage":26,"isFirst":false,"isLast":false},"edges":[{"node":{"title":"调酒班第二堂课","path":"/content/journal/second-class-of-bar-tendering-course/"}},{"node":{"title":"Ubuntu","path":"/content/journal/ubuntu/"}},{"node":{"title":"Quiz","path":"/content/journal/quiz/"}},{"node":{"title":"Confessions to Make","path":"/content/journal/confessions-to-make/"}},{"node":{"title":"I'm an Idiot","path":"/content/journal/im-an-idiot/"}},{"node":{"title":"Eating Junk Food, Drinking Lousy Beer","path":"/content/journal/eating-junk-food-drinking-lousy-beer/"}}]}},"context":{}}