{"hash":"d7e3c918111abee5834489b403396b27da490749","data":{"posts":{"totalCount":289,"pageInfo":{"totalPages":49,"currentPage":15,"isFirst":false,"isLast":false},"edges":[{"node":{"title":"Rarcrack >.<","path":"/content/journal/rarcrack/"}},{"node":{"title":"Awesome 3.3.1!","path":"/content/journal/awesome-331/"}},{"node":{"title":"叮当猫","path":"/content/journal/ding-dong-cat/"}},{"node":{"title":"YoFrankie!","path":"/content/journal/yofrankie/"}},{"node":{"title":"MicroEmulator+Opera Mini","path":"/content/journal/microemulatoropera-mini/"}},{"node":{"title":"Win 7 on Virtualbox","path":"/content/journal/win-7-on-virtualbox/"}}]}},"context":{}}