{"hash":"fdf0226fc38aac995e71da34124516abb882d986","data":{"posts":{"totalCount":290,"pageInfo":{"totalPages":49,"currentPage":7,"isFirst":false,"isLast":false},"edges":[{"node":{"title":"小兔子","path":"/content/journal/rabbit/"}},{"node":{"title":"Oh I Love Today :)","path":"/content/journal/oh-i-love-today/"}},{"node":{"title":"AG每日一喷","path":"/content/journal/agasian-games-1/"}},{"node":{"title":"嗯，今天是七夕","path":"/content/journal/chinese-valintines-day/"}},{"node":{"title":"好久米有update了","path":"/content/journal/have-not-updated-in-a-while/"}},{"node":{"title":"A Short Story","path":"/content/journal/a-short-story/"}}]}},"context":{}}