{"hash":"6b998a9ef7316aa0a42beb1ba295eb05bd215169","data":{"posts":{"totalCount":25,"pageInfo":{"totalPages":5,"currentPage":5,"isFirst":false,"isLast":true},"edges":[{"node":{"title":"Live-Android","path":"/content/journal/live-android/"}}]}},"context":{}}