{"hash":"9bfa97e5f71d3e2459f2681c879c3b1778226211","data":{"posts":{"totalCount":290,"pageInfo":{"totalPages":49,"currentPage":12,"isFirst":false,"isLast":false},"edges":[{"node":{"title":"经典！","path":"/content/journal/classic/"}},{"node":{"title":"纪念一个逝去的人","path":"/content/journal/in-memory/"}},{"node":{"title":"High in the Air","path":"/content/journal/high-in-the-air/"}},{"node":{"title":"O God, Fever!","path":"/content/journal/o-god-fever/"}},{"node":{"title":"流水帐——志愿者一天的工作","path":"/content/journal/first-day-volunteering/"}},{"node":{"title":"PacketiX.NET Vpn Client Installation & Configuration on Linux","path":"/content/journal/packetixnet-vpn-client-installation-configuration-on-linux/"}}]}},"context":{}}