{"hash":"555ea1ea3fc15f08ad1c796e91be954332b3ec85","data":{"posts":{"totalCount":290,"pageInfo":{"totalPages":49,"currentPage":9,"isFirst":false,"isLast":false},"edges":[{"node":{"title":"第一份part Time, 很廉价","path":"/content/journal/first-part-time/"}},{"node":{"title":"我的blog算是活了","path":"/content/journal/blog-is-alive/"}},{"node":{"title":"Put.io Test-drive","path":"/content/journal/putio-test-drive/"}},{"node":{"title":"關于搭訕--今日我黑仔","path":"/content/journal/being-hit-on/"}},{"node":{"title":"My Strange Theories","path":"/content/journal/my-strange-theories/"}},{"node":{"title":"阳朔，没玩够","path":"/content/journal/yangshuo-trip/"}}]}},"context":{}}