{"hash":"c035355dcf2811990fb7d6212a2e49c58001871e","data":{"posts":{"totalCount":289,"pageInfo":{"totalPages":49,"currentPage":38,"isFirst":false,"isLast":false},"edges":[{"node":{"title":"一切都结束了","path":"/content/journal/all-over/"}},{"node":{"title":"搞定级汇演","path":"/content/journal/done-with-first-performance/"}},{"node":{"title":"今天我太幸运了吗？","path":"/content/journal/too-lucky-today/"}},{"node":{"title":"Everything Fell Apart","path":"/content/journal/everything-fell-apart/"}},{"node":{"title":"今天","path":"/content/journal/today/"}},{"node":{"title":"没号了","path":"/content/journal/run-out-of-numbers/"}}]}},"context":{}}