{"hash":"555ea1ea3fc15f08ad1c796e91be954332b3ec85","data":{"posts":{"totalCount":290,"pageInfo":{"totalPages":49,"currentPage":10,"isFirst":false,"isLast":false},"edges":[{"node":{"title":"Back to Twitter. Loving Plurk.","path":"/content/journal/back-to-twitter-loving-plurk/"}},{"node":{"title":"择偶条件@.@","path":"/content/journal/choosing-spouse/"}},{"node":{"title":"闷","path":"/content/journal/bored/"}},{"node":{"title":"闲","path":"/content/journal/free/"}},{"node":{"title":"Know Thyself","path":"/content/journal/know-thyself/"}},{"node":{"title":"State of Mind. 心理测试之夜","path":"/content/journal/state-of-mind-state-of-mind/"}}]}},"context":{}}