{"hash":"112f781b8d76bdc86d49c040e15d8e4136f8b0f7","data":{"posts":{"totalCount":289,"pageInfo":{"totalPages":49,"currentPage":14,"isFirst":false,"isLast":false},"edges":[{"node":{"title":"GFW好强大","path":"/content/journal/gfwstrong-gfw/"}},{"node":{"title":"把blogger整合过来后的第一篇","path":"/content/journal/first-post-after-integration-of-blogger/"}},{"node":{"title":"Nokia N78 在 VirtualBox 下成功刷机","path":"/content/journal/nokia-n78-firmware-update-virtualbox/"}},{"node":{"title":">.<","path":"/content/journal/265/"}},{"node":{"title":"郁闷...","path":"/content/journal/frustrated/"}},{"node":{"title":"Matlab! 界面白色！","path":"/content/journal/matlab-matlab-blank-ui/"}}]}},"context":{}}