{"hash":"6f7ea7b7b7db75da07a89a880aedd8fe036650ea","data":{"posts":{"totalCount":289,"pageInfo":{"totalPages":49,"currentPage":22,"isFirst":false,"isLast":false},"edges":[{"node":{"title":"Blog for Myself","path":"/content/journal/blog-for-myself/"}},{"node":{"title":"Relationship Sucks","path":"/content/journal/relationship-sucks/"}},{"node":{"title":"Isabelle DURET-DUJARRIC [Interviews, Part 2]","path":"/content/journal/isabelle-duret-dujarric-interviews-part-2/"}},{"node":{"title":"Isabelle DURET-DUJARRIC [Interviews, Part 1]","path":"/content/journal/isabelle-duret-dujarric-interviews-part-1/"}},{"node":{"title":"GZ International Art Fair","path":"/content/journal/gz-international-art-fair/"}},{"node":{"title":"The Aftermath","path":"/content/journal/the-aftermath/"}}]}},"context":{}}