{"hash":"112f781b8d76bdc86d49c040e15d8e4136f8b0f7","data":{"posts":{"totalCount":289,"pageInfo":{"totalPages":49,"currentPage":28,"isFirst":false,"isLast":false},"edges":[{"node":{"title":"军训","path":"/content/journal/military-training/"}},{"node":{"title":"军训中","path":"/content/journal/in-midst-of-military-training/"}},{"node":{"title":"军训快开始了","path":"/content/journal/military-training-approaching/"}},{"node":{"title":"Difference Between Guangzhou and Hong Kong?","path":"/content/journal/difference-between-guangzhou-and-hong-kong/"}},{"node":{"title":"Badongo Is ACCESSIBLE Again!","path":"/content/journal/badongo-is-accessible-again/"}},{"node":{"title":"Untitled","path":"/content/journal/untitled/"}}]}},"context":{}}