{"hash":"112f781b8d76bdc86d49c040e15d8e4136f8b0f7","data":{"posts":{"totalCount":289,"pageInfo":{"totalPages":49,"currentPage":16,"isFirst":false,"isLast":false},"edges":[{"node":{"title":"日食","path":"/content/journal/sun-eclipse/"}},{"node":{"title":"She's the One","path":"/content/journal/shes-the-one/"}},{"node":{"title":"汕头牛肉丸","path":"/content/journal/shantou-beef-meatball/"}},{"node":{"title":"Live-Android","path":"/content/journal/live-android/"}},{"node":{"title":"ID：HuntXu ＆ Xsoul","path":"/content/journal/huntxu-xsoul/"}},{"node":{"title":"数模","path":"/content/journal/modelling/"}}]}},"context":{}}