{"hash":"f9d453f16fe0a1a624117380dd11366e578c1d7b","data":{"posts":{"totalCount":290,"pageInfo":{"totalPages":49,"currentPage":48,"isFirst":false,"isLast":false},"edges":[{"node":{"title":"2004年8月9日{初中时代的暑假日记}","path":"/content/journal/aug-9th-2004/"}},{"node":{"title":"2004年8月3日{初中时代的暑假日记}","path":"/content/journal/aug-3rd-2004/"}},{"node":{"title":"2004年8月29日{初中时代的暑假日记}","path":"/content/journal/aug-29th-2004/"}},{"node":{"title":"2004年8月23日{初中时代的暑假日记}","path":"/content/journal/aug-23rd-2004/"}},{"node":{"title":"2004年8月16日{初中时代的暑假日记}","path":"/content/journal/aug-16th-2004/"}},{"node":{"title":"《伊索寓言》读后感","path":"/content/journal/aesops-fables-reading-notes/"}}]}},"context":{}}