{"hash":"6f7ea7b7b7db75da07a89a880aedd8fe036650ea","data":{"posts":{"totalCount":289,"pageInfo":{"totalPages":49,"currentPage":18,"isFirst":false,"isLast":false},"edges":[{"node":{"title":"OMG, Nothing Works!","path":"/content/journal/omg-nothing-works/"}},{"node":{"title":"Untitled","path":"/content/journal/untitled-2/"}},{"node":{"title":"Holiday's Almost Over","path":"/content/journal/holidays-almost-over/"}},{"node":{"title":"A Tiny City","path":"/content/journal/a-tiny-city/"}},{"node":{"title":"Revolutionary Road","path":"/content/journal/revolutionary-road/"}},{"node":{"title":"Art Museum","path":"/content/journal/art-museum/"}}]}},"context":{}}