{"hash":"c035355dcf2811990fb7d6212a2e49c58001871e","data":{"posts":{"totalCount":289,"pageInfo":{"totalPages":49,"currentPage":43,"isFirst":false,"isLast":false},"edges":[{"node":{"title":"News-Internet Virtual iPod","path":"/content/journal/news-internet-virtual-ipod/"}},{"node":{"title":"教师节 Teachers' Day","path":"/content/journal/teachers-day-teachers-day/"}},{"node":{"title":"关于高二分班","path":"/content/journal/11th-grade/"}},{"node":{"title":"女垒世锦赛-WWC","path":"/content/journal/wwc-world-championship-wwc/"}},{"node":{"title":"男篮世锦赛 GRK-FRA","path":"/content/journal/fiba-grk-fra-grk-fra/"}},{"node":{"title":"男篮世锦赛 USA vs GER","path":"/content/journal/fiba-usa-ger-usa-vs-ger/"}}]}},"context":{}}